Factors Recodificacions
…
---

### Exercici

- Elimineu els casos de les dades `starwars` amb valors perduts a la variable `homeworld`

.pull-left[

```r
starwars %>% 
  count(homeworld, sort = T)
```

```
## # A tibble: 49 x 2
##    homeworld     n
##    <chr>     <int>
##  1 Naboo        11
##  2 Tatooine     10
##  3 <NA>         10
##  4 Alderaan      3
##  5 Coruscant     3
##  6 Kamino        3
##  7 Corellia      2
##  8 Kashyyyk      2
##  9 Mirial        2
## 10 Ryloth        2
## # ... with 39 more rows
```
]

--

.pull-right[
<br>

.bg-yellow[Sense valors perduts:]

```
## # A tibble: 48 x 2
##    homeworld       n
##    <chr>       <int>
##  1 Naboo          11
##  2 Tatooine       10
##  3 Alderaan        3
##  4 Coruscant       3
##  5 Kamino          3
##  6 Corellia        2
##  7 Kashyyyk        2
##  8 Mirial          2
##  9 Ryloth          2
## 10 Aleen Minor     1
## # ... with 38 more rows
```
…
